<?xml version="1.0" encoding="utf-8"?>
<!-- Generator: Adobe Illustrator 21.0.0, SVG Export Plug-In . SVG Version: 6.00 Build 0)  -->
<svg version="1.1" id="Capa_1" xmlns="http://www.w3.org/2000/svg" xmlns:xlink="http://www.w3.org/1999/xlink" x="0px" y="0px"
	 viewBox="0 0 69.8 96.4" style="enable-background:new 0 0 69.8 96.4;" xml:space="preserve">
<style type="text/css">
	.st0{fill:#0099DC;}
	.st1{fill:#FFFFFF;}
</style>
<g>
	<polygon class="st0" points="64.7,46.9 58.4,43.1 58.4,68.7 56,68.7 56,41.7 34.9,29 13.9,41.7 13.9,68.7 11.5,68.7 11.5,43.1 
		5.1,46.9 3.8,44.5 34.6,26 34.8,25.7 34.9,25.8 35.1,25.7 35.2,26 66,44.5 	"/>
	<path class="st0" d="M50.2,51.2c-0.2,0.2-0.8,0.2-0.8,0.2h-1.5c0.1,0.3,0.2,0.5,0.3,0.8c1.4,4.5,1.5,5.4,1.5,5.4v5.9c0,0,0,1-1,1.7
		v2.9c0,0.4-0.3,0.6-0.6,0.6h-2.9c-0.4,0-0.6-0.3-0.6-0.6v-2.4c-4.2,0.1-15.3,0.1-19.6,0v2.3c0,0.4-0.3,0.6-0.6,0.6h-2.9
		c-0.4,0-0.6-0.3-0.6-0.6v-2.9c-1-0.6-1-1.7-1-1.7v-5.9c0,0,0-0.9,1.5-5.4c0.1-0.3,0.2-0.5,0.3-0.8h-1.5c0,0-0.5,0-0.8-0.2
		c-0.4-0.4,0.2-1,0.7-1.5c0.3-0.3,1.5-0.4,2.4-0.4c0.9-2.1,2.5-5.2,2.9-5.6c0.5-0.4,7-0.4,8.7-0.5c1.8,0,8.8,0,9.3,0.5
		c0.4,0.4,2.3,3.5,3.4,5.6c0.9,0,2.2,0,2.6,0.4C50,50.1,50.5,50.8,50.2,51.2z"/>
	<path class="st1" d="M30.3,58.8c1.1,0.2,7.8,0.2,8.9,0c1.4-0.3,1.7-2.7,1.7-2.7H28.7C28.7,56,29,58.5,30.3,58.8z"/>
	<path class="st1" d="M25,54.7c0,0-0.6-0.2-0.9-0.2c-1.2,0-2.1,1-2.1,2.1c0,1.1,0.8,2,1.9,2.1v0h3.9l-0.5-2.5L25,54.7z"/>
	<path class="st1" d="M42.1,45.7c-1-0.1-3.4-0.2-7-0.2h-1.7c-3.3,0-5.4,0.1-6.4,0.2c-0.6,1.3-2,4.1-2.5,5.2h20.7
		C44.4,49.7,42.9,47,42.1,45.7z"/>
	<path class="st1" d="M45.5,54.6c-0.3,0-0.9,0.2-0.9,0.2l-2.4,1.4l-0.5,2.5h3.9c1,0,2-1,2-2C47.6,55.5,46.6,54.6,45.5,54.6z"/>
</g>
</svg>
