<?xml version="1.0" encoding="utf-8"?>
<!-- Generator: Adobe Illustrator 21.0.0, SVG Export Plug-In . SVG Version: 6.00 Build 0)  -->
<svg version="1.1" id="Capa_1" xmlns="http://www.w3.org/2000/svg" xmlns:xlink="http://www.w3.org/1999/xlink" x="0px" y="0px"
	 viewBox="0 0 69.8 96.4" style="enable-background:new 0 0 69.8 96.4;" xml:space="preserve">
<style type="text/css">
	.st0{fill:#0099DA;}
</style>
<path class="st0" d="M34.9,20.4c-16.3,0-20.1,3.9-20.1,20.1c0,14.1,15.9,31.3,19.3,35.1c0.4,0.4,1.3,0.4,1.7,0
	c3.9-3.9,19.3-21.4,19.3-35.1C55.1,24.3,51.2,20.4,34.9,20.4z M34.9,44.4c-3.4,0-6-2.6-6-6c0-3.4,2.6-6,6-6s6,2.6,6,6
	S38.3,44.4,34.9,44.4z"/>
</svg>
