<?xml version="1.0" encoding="utf-8"?>
<!-- Generator: Adobe Illustrator 19.0.1, SVG Export Plug-In . SVG Version: 6.00 Build 0)  -->
<svg version="1.1" id="Capa_1" xmlns="http://www.w3.org/2000/svg" xmlns:xlink="http://www.w3.org/1999/xlink" x="0px" y="0px"
	 viewBox="-163 255.5 283.5 283.5" style="enable-background:new -163 255.5 283.5 283.5;" xml:space="preserve">
<style type="text/css">
	.st0{fill:#CD1634;}
</style>
<rect x="-70.5" y="348" class="st0" width="98.5" height="98.5"/>
</svg>
