<?xml version="1.0" encoding="utf-8"?>
<!-- Generator: Adobe Illustrator 19.0.1, SVG Export Plug-In . SVG Version: 6.00 Build 0)  -->
<svg version="1.1" id="Capa_1" xmlns="http://www.w3.org/2000/svg" xmlns:xlink="http://www.w3.org/1999/xlink" x="0px" y="0px"
	 viewBox="0 0 229.3 27" style="enable-background:new 0 0 229.3 27;" xml:space="preserve">
<g>
	<path d="M10.1,4.3c1.4,0,2.9,0.3,4.3,1l-0.8,2.4c-1.3-0.6-2.2-0.8-3.5-0.8C7.4,6.9,6,9.1,6,12.2c0,3.1,1.4,5.3,4.1,5.3
		c1.2,0,2.2-0.2,3.5-0.8l0.8,2.4c-1.4,0.6-2.9,1-4.3,1c-4.8,0-7.4-3.2-7.4-7.9S5.4,4.3,10.1,4.3z"/>
	<path d="M21.4,20.1c-3.7,0-5.7-2.6-5.7-5.7c0-3.1,2-5.7,5.7-5.7c3.7,0,5.7,2.6,5.7,5.7C27,17.5,25.1,20.1,21.4,20.1z M21.4,17.6
		c1.6,0,2.6-1.1,2.6-3.2c0-2.2-1-3.2-2.6-3.2c-1.5,0-2.6,1.1-2.6,3.2C18.8,16.6,19.8,17.6,21.4,17.6z"/>
	<path d="M33.2,6.5V9h3.1v2.3h-3.1v5.1c0,0.8,0.4,1.2,1.3,1.2c0.5,0,1.2-0.2,1.7-0.3v2.4c-0.4,0.1-1.5,0.3-2.5,0.3
		c-2.4,0-3.5-1-3.5-3.1v-5.6h-2V9.7l2-0.7V6.5H33.2z"/>
	<path d="M39.9,3.9c1.1,0,1.8,0.7,1.8,1.6S41,7.2,39.9,7.2c-1,0-1.7-0.7-1.7-1.6S38.9,3.9,39.9,3.9z M38.4,19.8V9h3v10.7H38.4z"/>
	<path d="M52.4,9v1.6l-5.2,6.8v0h5.2v2.3h-8.8v-1.6l5.1-6.8v0h-4.8V9H52.4z"/>
	<path d="M63.7,17.4c0,0.3,0,0.4,0.4,0.4h0.8v2C64.4,20,63.9,20,63.3,20c-1.2,0-1.8-0.4-2.1-1.3h0c-0.7,0.6-2.1,1.3-3.4,1.3
		c-2.4,0-3.6-1.4-3.6-3.4c0-2.4,1.5-3.5,5.3-3.5h1.4v-0.5c0-1.3-1.2-1.5-1.8-1.5c-1.2,0-2.5,0.3-3.6,0.8l-0.7-2.3
		c1.1-0.5,2.8-1,4.4-1c3.1,0,4.6,1.6,4.6,4.3V17.4z M59.6,15.1c-2,0-2.7,0.5-2.7,1.3c0,0.9,0.5,1.3,1.4,1.3c0.8,0,1.8-0.3,2.4-0.7
		v-1.9H59.6z"/>
	<path d="M77.1,4.2v15.6h-2.2l-0.4-1h0c-0.8,0.6-1.8,1.3-3.4,1.3c-3.1,0-4.7-2.6-4.7-5.7c0-3.1,1.6-5.7,4.7-5.7c1.5,0,2.4,0.6,3,1.1
		h0V4.2H77.1z M74.1,11.8c-0.6-0.4-1.4-0.6-2.2-0.6c-1.8,0-2.6,1.3-2.6,3.2c0,1.9,0.8,3.2,2.6,3.2c0.8,0,1.6-0.3,2.2-0.6V11.8z"/>
	<path d="M84.9,20.1c-3.7,0-5.7-2.6-5.7-5.7c0-3.1,2-5.7,5.7-5.7c3.7,0,5.7,2.6,5.7,5.7C90.6,17.5,88.7,20.1,84.9,20.1z M84.9,17.6
		c1.6,0,2.6-1.1,2.6-3.2c0-2.2-1-3.2-2.6-3.2c-1.5,0-2.6,1.1-2.6,3.2C82.4,16.6,83.4,17.6,84.9,17.6z"/>
	<path d="M95.3,9l0.4,1.3h0c0.4-0.7,1.3-1.6,2.7-1.6c0.4,0,0.8,0.1,1.1,0.1l-0.3,2.5c-0.3-0.1-0.8-0.1-1.1-0.1c-1.2,0-2,0.6-2.3,1
		v7.5h-3V9H95.3z"/>
	<path d="M118.5,4.8l-5.3,14.9h-3.8l-5.3-14.9V4.6h3.4l3.9,11.9h0.1l3.8-11.9h3.4V4.8z"/>
	<path d="M124.2,20.1c-3.7,0-5.7-2.6-5.7-5.7c0-3.1,2-5.7,5.7-5.7c3.7,0,5.7,2.6,5.7,5.7C129.8,17.5,127.9,20.1,124.2,20.1z
		 M124.2,17.6c1.6,0,2.6-1.1,2.6-3.2c0-2.2-1-3.2-2.6-3.2c-1.5,0-2.6,1.1-2.6,3.2C121.6,16.6,122.6,17.6,124.2,17.6z"/>
	<path d="M135,4.2v13.2c0,0.3,0,0.4,0.4,0.4h1.2v2c-0.5,0.1-1.1,0.2-1.8,0.2c-2,0-2.8-1-2.8-3.1V4.2H135z"/>
	<path d="M141.5,14.8v5h-3V4.2h3v9.7h0l3.8-4.8h3.3v0.2l-4.1,5l4.3,5.3v0.2h-3.4L141.5,14.8L141.5,14.8z"/>
	<path d="M150.7,16.9c1,0.5,2.3,0.9,3.4,0.9c1.2,0,1.7-0.4,1.7-1c0-0.6-0.5-0.9-1.5-1.1l-1.4-0.3c-1.5-0.4-2.9-1.2-2.9-3.2
		c0-2.1,1.7-3.5,4.5-3.5c1.6,0,2.8,0.3,4,0.8l-0.8,2.1c-1-0.4-2-0.6-3.1-0.6c-1.1,0-1.6,0.3-1.6,1c0,0.6,0.5,0.8,1.4,1.1l1.4,0.3
		c1.7,0.4,3,1.3,3,3.2c0,2.2-1.8,3.5-4.5,3.5c-1.8,0-3.2-0.4-4.4-1L150.7,16.9z"/>
	<path d="M177.8,9.3l-3.2,10.5h-3.3l-2.4-7.7h0l-2.4,7.7h-3.3l-3.2-10.5V9h3l2,7.4h0l2.3-7.4h3.2l2.3,7.4h0l2-7.4h3V9.3z"/>
	<path d="M188.5,17.4c0,0.3,0,0.4,0.4,0.4h0.8v2c-0.5,0.1-0.9,0.2-1.6,0.2c-1.2,0-1.8-0.4-2.1-1.3h0c-0.7,0.6-2.1,1.3-3.4,1.3
		c-2.4,0-3.6-1.4-3.6-3.4c0-2.4,1.5-3.5,5.3-3.5h1.4v-0.5c0-1.3-1.2-1.5-1.8-1.5c-1.2,0-2.5,0.3-3.6,0.8l-0.7-2.3
		c1.1-0.5,2.8-1,4.4-1c3.1,0,4.6,1.6,4.6,4.3V17.4z M184.5,15.1c-2,0-2.7,0.5-2.7,1.3c0,0.9,0.5,1.3,1.4,1.3c0.8,0,1.8-0.3,2.4-0.7
		v-1.9H184.5z"/>
	<path d="M201.9,19.1c0,3.6-2,5.4-5.5,5.4c-1.8,0-3.2-0.5-4.2-1l0.9-2.2c0.9,0.5,2,0.8,3.3,0.8c1.8,0,2.5-0.6,2.5-2.4v-0.8h0
		c-0.6,0.5-1.5,1.1-3,1.1c-3.1,0-4.7-2.4-4.7-5.6s1.6-5.6,4.7-5.6c1.6,0,2.5,0.8,3.3,1.3h0l0.4-1h2.3V19.1z M198.9,11.8
		c-0.6-0.4-1.4-0.7-2.2-0.7c-1.8,0-2.5,1.2-2.5,3.2c0,1.9,0.8,3.1,2.5,3.1c0.8,0,1.6-0.3,2.2-0.6V11.8z"/>
	<path d="M207.1,15.3c0.1,1.5,1.1,2.4,2.7,2.4c1.2,0,2.4-0.3,3.4-0.7l0.7,2.2c-1.1,0.5-2.6,0.9-4.3,0.9c-3.7,0-5.5-2.6-5.5-5.7
		c0-3,1.9-5.7,5.4-5.7c3.5,0,5,2.1,5,4.6c0,0.7-0.1,1.6-0.2,1.9H207.1z M211.7,13.4c0-0.1,0-0.2,0-0.3c0-1.2-0.6-2.2-2.2-2.2
		c-1.5,0-2.3,1.2-2.3,2.5H211.7z"/>
	<path d="M219.1,9l0.4,1h0c0.6-0.6,1.7-1.4,3.4-1.4c2.5,0,4,1.7,4,4.3v6.8h-3v-6.5c0-1.4-0.6-2.1-1.9-2.1c-1,0-1.8,0.6-2.3,0.9v7.7
		h-3V9H219.1z"/>
</g>
</svg>
