<?xml version="1.0" encoding="utf-8"?>
<!-- Generator: Adobe Illustrator 19.0.1, SVG Export Plug-In . SVG Version: 6.00 Build 0)  -->
<svg version="1.1" id="Capa_1" xmlns="http://www.w3.org/2000/svg" xmlns:xlink="http://www.w3.org/1999/xlink" x="0px" y="0px"
	 viewBox="-4109 3714.7 283.5 283.5" style="enable-background:new -4109 3714.7 283.5 283.5;" xml:space="preserve">
<style type="text/css">
	.st0{fill:#D63F46;}
</style>
<circle class="st0" cx="-3967.2" cy="3856.5" r="58.2"/>
</svg>
